{
  "$schema": "https://github.com/fastfetch-cli/fastfetch/raw/dev/doc/json_schema.json",
  "player": "mpv --loop-file=inf",
//  "command": { 
//       "kitten icat": "~/Pictures/gif/snow_fantasy.gif,"
//            "format": "\u001b[90m  \u001b[31m  \u001b[32m  \u001b[33m  \u001b[34m  \u001b[35m  \u001b[36m  \u001b[37m "
//   },
  "logo": {
//    	"source": "~/Pictures/Wallpaper/1080less/Keyra.png",
    	"source": "~/Pictures/arch.png",
    	"type": "kitty-direct",
    	"padding": {
    		"top": 4,
                "left": 0
    	}
    },
    "display": {
        "separator": " "
    },
    "modules": [
	"break",
        "break",
        "break",
    {
            "type": "title",
            "keyWidth": 10
        },
        {
            "type": "custom",
            "format": "--------------"
        },
        {
             "type": "datetime",
             "format": "{11}-{3}-{1}",
             "key": " ",
             "keyColor": "34"
        },
        "break",
        //{
        //    "type": "os",
        //    "key": "󰣇 ",
        //    "keyColor": "34" // = color4
        //},
        {
            "type": "kernel",
            "key": " ",
            "keyColor": "34"
        },
        {
            "type": "packages",
           // "format": "{} (pacman)",
           // "key": "󰏗 ",
	    "key": " ",
            "keyColor": "34" 
        },
           {
             "type": "shell",
             "key": " ",
              "keyColor": "34" 
           },
        {
            "type": "terminal",
            "key": " ",
            "keyColor": "34" 
        },
        {
            "type": "wm",
            "key": " ",
            "keyColor": "34" 
        },
        // {
        //     "type": "cursor",
        //     "key": " ",
        //     "keyColor": "34", 
        // },
        {
            "type": "terminalfont",
            "key": " ",
            "keyColor": "34", 
        },
        {
            "type": "uptime",
            "key": " ",
            "keyColor": "34"
        },
        // {
        //   "type": "media",
        //   "key": " ",
        //   "keyColor": "34" 
        // },
//         "break",
  //      "break",
        {
            "type": "cpu",
            "key": " ",
            "keyColor": "blue"
        },
        {
            "type": "gpu",
            "key": " ",
            "keyColor": "blue"
        },
        {
           "type": "memory",
           "key": " ",
           "keyColor": "blue"
        },
       "break",
        {
            "type": "custom",
            "format": "\u001b[90m  \u001b[31m  \u001b[32m  \u001b[33m  \u001b[34m  \u001b[35m  \u001b[36m  \u001b[37m "
        },
        "break",
        "break"
      ]
}
