{
    "border-rgba": "#fa8072d9",
    "border-radius": 24,
    "border-width": 4,
    "border-mode": "outside",
    "disable-version-warning": false,
    "smart-hide-border": true,

    "positive-x-offset": 0,
    "positive-y-offset": 0,
    "negative-x-offset": 0,
    "negative-y-offset": 0
}
